[{
	"logo": "https://cnet3.cbsistatic.com/img/J6WsvoDsr_5GZUfX6uYkbgRnl4U=/2019/03/04/3055d4ad-ad09-4924-9132-eb790c0633af/jonsnowonthronegot.jpg",
	"name": "Game of Thrones Episode 3",
	"sname": "Trending now",
	"ssname": "Works Only In India",
	"streaming": [
{
			"age": "Mozilla/5.0 (Windows NT 6.1; Win64; x64) AppleWebKit/537.36 (KHTML, like Gecko) Chrome/62.0.3202.94 Safari/537.36",
			"cardl": 300,
			"cardw": 500,
			"category": 5,
			"channel_id": 155,
			"drm": false,
			"hd": false,
			"icon": "https://www.dreamteamcric.com/wp-content/uploads/DC-VS-CSK-3.jpg",
			"imgh": 219,
			"imgw": 450,
			"isHD": false,
			"language": 1,
			"lic": false,
			"link": "https://www.oreotv.website/live/hot/hotipl.m3u8?ma=01&lan=hin",
			"live": true,
			"name": "IPL LIVE Hindi",
			"tok": "widevine",
			"tokj": "hello",
			"trigger": false,
			"z": false,
			"zee": false
		},

		 {
			"age": "Mozilla/5.0 (Windows NT 6.1; Win64; x64) AppleWebKit/537.36 (KHTML, like Gecko) Chrome/62.0.3202.94 Safari/537.36",
			"cardl": 300,
			"cardw": 500,
			"category": 5,
			"channel_id": 155,
			"drm": true,
			"hd": false,
			"icon": "https://www.wallpapers4k.org/wp-content/uploads/2018/10/game-of-thrones-wallpaper-3.jpg",
			"imgh": 219,
			"imgw": 350,
			"isHD": false,
			"language": 1,
			"lic": false,
			"link": "https://hsdashgec4.akamaized.net/dash/live/670870/got2019/GOT29APRILEP3/master.mpd",
			"live": true,
			"name": "Game of Thrones Episode 3",
			"tok": "widevine",
			"tokj": "hello",
			"trigger": false,
			"z": false,
			"zee": false
		}
	],
	"title": "Welcome to array 2"
}, 

 {    
	"logo": "https://www.bigtricks.in/wp-content/uploads/2018/04/ipl-logo-1-300x300.jpg",
	"name": "IPL 2019 Live 8 Languages",
	"sname": "Only Live Cricket",
	"ssname": "Works Only In India",
	"streaming": [{
			"age": "Mozilla/5.0 (Windows NT 6.1; Win64; x64) AppleWebKit/537.36 (KHTML, like Gecko) Chrome/62.0.3202.94 Safari/537.36",
			"cardl": 300,
			"cardw": 500,
			"category": 5,
			"channel_id": 155,
			"drm": false,
			"hd": false,
			"icon": "https://www.dreamteamcric.com/wp-content/uploads/DC-VS-CSK-3.jpg",
			"imgh": 219,
			"imgw": 450,
			"isHD": false,
			"language": 1,
			"lic": false,
			"link": "https://www.oreotv.website/live/hot/hotipl.m3u8?ma=01&lan=hin",
			"live": true,
			"name": "IPL LIVE Hindi",
			"tok": "widevine",
			"tokj": "hello",
			"trigger": false,
			"z": false,
			"zee": false
		}, {
			"age": "Mozilla/5.0 (Windows NT 6.1; Win64; x64) AppleWebKit/537.36 (KHTML, like Gecko) Chrome/62.0.3202.94 Safari/537.36",
			"cardl": 300,
			"cardw": 500,
			"category": 5,
			"channel_id": 155,
			"drm": false,
			"hd": false,
			"icon": "https://www.dreamteamcric.com/wp-content/uploads/DC-VS-CSK-3.jpg",
			"imgh": 219,
			"imgw": 450,
			"isHD": false,
			"language": 1,
			"lic": false,
			"link": "https://www.oreotv.website/live/hot/hotipl.m3u8?ma=01&lan=eng",
			"live": true,
			"name": "IPL LIVE English",
			"tok": "widevine",
			"tokj": "hello",
			"trigger": false,
			"z": false,
			"zee": false
		}, {
			"age": "Mozilla/5.0 (Windows NT 6.1; Win64; x64) AppleWebKit/537.36 (KHTML, like Gecko) Chrome/62.0.3202.94 Safari/537.36",
			"cardl": 300,
			"cardw": 500,
			"category": 5,
			"channel_id": 155,
			"drm": false,
			"hd": false,
			"icon": "https://www.dreamteamcric.com/wp-content/uploads/DC-VS-CSK-3.jpg",
			"imgh": 219,
			"imgw": 450,
			"isHD": false,
			"language": 1,
			"lic": false,
			"link": "https://www.oreotv.website/live/hot/hotipl.m3u8?ma=01&lan=tel",
			"live": true,
			"name": "IPL LIVE Telugu",
			"tok": "widevine",
			"tokj": "hello",
			"trigger": false,
			"z": false,
			"zee": false
		}, {
			"age": "Mozilla/5.0 (Windows NT 6.1; Win64; x64) AppleWebKit/537.36 (KHTML, like Gecko) Chrome/62.0.3202.94 Safari/537.36",
			"cardl": 300,
			"cardw": 500,
			"category": 5,
			"channel_id": 155,
			"drm": false,
			"hd": false,
			"icon": "https://www.dreamteamcric.com/wp-content/uploads/DC-VS-CSK-3.jpg",
			"imgh": 219,
			"imgw": 450,
			"isHD": false,
			"language": 1,
			"lic": false,
			"link": "https://www.oreotv.website/live/hot/hotipl.m3u8?ma=01&lan=tam",
			"live": true,
			"name": "IPL LIVE Tamil",
			"tok": "widevine",
			"tokj": "hello",
			"trigger": false,
			"z": false,
			"zee": false
		}, {
			"age": "Mozilla/5.0 (Windows NT 6.1; Win64; x64) AppleWebKit/537.36 (KHTML, like Gecko) Chrome/62.0.3202.94 Safari/537.36",
			"cardl": 300,
			"cardw": 500,
			"category": 5,
			"channel_id": 155,
			"drm": false,
			"hd": false,
			"icon": "https://www.dreamteamcric.com/wp-content/uploads/DC-VS-CSK-3.jpg",
			"imgh": 219,
			"imgw": 450,
			"isHD": false,
			"language": 1,
			"lic": false,
			"link": "https://www.oreotv.website/live/hot/hotipl.m3u8?ma=01&lan=kan",
			"live": true,
			"name": "IPL LIVE Kanada",
			"tok": "widevine",
			"tokj": "hello",
			"trigger": false,
			"z": false,
			"zee": false
		},  {
			"age": "Mozilla/5.0 (Windows NT 6.1; Win64; x64) AppleWebKit/537.36 (KHTML, like Gecko) Chrome/62.0.3202.94 Safari/537.36",
			"cardl": 300,
			"cardw": 500,
			"category": 5,
			"channel_id": 155,
			"drm": false,
			"hd": false,
			"icon": "https://www.dreamteamcric.com/wp-content/uploads/DC-VS-CSK-3.jpg",
			"imgh": 219,
			"imgw": 450,
			"isHD": false,
			"language": 1,
			"lic": false,
			"link": "https://www.oreotv.website/live/hot/hotipl.m3u8?ma=01&lan=ben",
			"live": true,
			"name": "IPL LIVE Bengali",
			"tok": "widevine",
			"tokj": "hello",
			"trigger": false,
			"z": false,
			"zee": false
		},


		{
			"age": "Mozilla/5.0 (Windows NT 6.1; Win64; x64) AppleWebKit/537.36 (KHTML, like Gecko) Chrome/62.0.3202.94 Safari/537.36",
			"cardl": 300,
			"cardw": 500,
			"category": 5,
			"channel_id": 155,
			"drm": false,
			"hd": false,
			"icon": "https://www.dreamteamcric.com/wp-content/uploads/DC-VS-CSK-3.jpg?width=390&height=219",
			"imgh": 219,
			"imgw": 450,
			"isHD": false,
			"language": 1,
			"lic": false,
			"link": "https://www.oreotv.website/live/hot/hotipl.m3u8?ma=01&lan=dug",
			"live": true,
			"name": "IPL LIVE Dug",
			"tok": "widevine",
			"tokj": "hello",
			"trigger": false,
			"z": false,
			"zee": false
		}
	],
	"title": "Welcome to array 2"
}, {
	"logo": "https://www.bigtricks.in/wp-content/uploads/2018/04/ipl-logo-1-300x300.jpg",
	"name": "IPL 2019 Live For MI TV",
	"sname": "Only Live Cricket",
	"ssname": "Works Only In India",
	"streaming": [{
			"age": "Mozilla/5.0 (Windows NT 6.1; Win64; x64) AppleWebKit/537.36 (KHTML, like Gecko) Chrome/62.0.3202.94 Safari/537.36",
			"cardl": 300,
			"cardw": 500,
			"category": 5,
			"channel_id": 155,
			"drm": false,
			"hd": false,
			"icon": "https://www.dreamteamcric.com/wp-content/uploads/DC-VS-CSK-3.jpg",
			"imgh": 219,
			"imgw": 450,
			"isHD": false,
			"language": 1,
			"lic": false,
			"link": "https://www.oreotv.website/live/hot/iplsingle.m3u8?ma=01&lan=hin",
			"live": true,
			"name": "IPL LIVE Hindi",
			"tok": "widevine",
			"tokj": "hello",
			"trigger": false,
			"z": false,
			"zee": false
		}, {
			"age": "Mozilla/5.0 (Windows NT 6.1; Win64; x64) AppleWebKit/537.36 (KHTML, like Gecko) Chrome/62.0.3202.94 Safari/537.36",
			"cardl": 300,
			"cardw": 500,
			"category": 5,
			"channel_id": 155,
			"drm": false,
			"hd": false,
			"icon": "https://www.dreamteamcric.com/wp-content/uploads/DC-VS-CSK-3.jpg",
			"imgh": 219,
			"imgw": 450,
			"isHD": false,
			"language": 1,
			"lic": false,
			"link": "https://www.oreotv.website/live/hot/iplsingle.m3u8?ma=01&lan=eng",
			"live": true,
			"name": "IPL LIVE English",
			"tok": "widevine",
			"tokj": "hello",
			"trigger": false,
			"z": false,
			"zee": false
		}, {
			"age": "Mozilla/5.0 (Windows NT 6.1; Win64; x64) AppleWebKit/537.36 (KHTML, like Gecko) Chrome/62.0.3202.94 Safari/537.36",
			"cardl": 300,
			"cardw": 500,
			"category": 5,
			"channel_id": 155,
			"drm": false,
			"hd": false,
			"icon": "https://www.dreamteamcric.com/wp-content/uploads/DC-VS-CSK-3.jpg",
			"imgh": 219,
			"imgw": 450,
			"isHD": false,
			"language": 1,
			"lic": false,
			"link": "https://www.oreotv.website/live/hot/iplsingle.m3u8?ma=01&lan=tel",
			"live": true,
			"name": "IPL LIVE Telugu",
			"tok": "widevine",
			"tokj": "hello",
			"trigger": false,
			"z": false,
			"zee": false
		}, {
			"age": "Mozilla/5.0 (Windows NT 6.1; Win64; x64) AppleWebKit/537.36 (KHTML, like Gecko) Chrome/62.0.3202.94 Safari/537.36",
			"cardl": 300,
			"cardw": 500,
			"category": 5,
			"channel_id": 155,
			"drm": false,
			"hd": false,
			"icon": "https://www.dreamteamcric.com/wp-content/uploads/DC-VS-CSK-3.jpg",
			"imgh": 219,
			"imgw": 450,
			"isHD": false,
			"language": 1,
			"lic": false,
			"link": "https://www.oreotv.website/live/hot/iplsingle.m3u8?ma=01&lan=tam",
			"live": true,
			"name": "IPL LIVE Tamil",
			"tok": "widevine",
			"tokj": "hello",
			"trigger": false,
			"z": false,
			"zee": false
		}, {
			"age": "Mozilla/5.0 (Windows NT 6.1; Win64; x64) AppleWebKit/537.36 (KHTML, like Gecko) Chrome/62.0.3202.94 Safari/537.36",
			"cardl": 300,
			"cardw": 500,
			"category": 5,
			"channel_id": 155,
			"drm": false,
			"hd": false,
			"icon": "https://www.dreamteamcric.com/wp-content/uploads/DC-VS-CSK-3.jpg",
			"imgh": 219,
			"imgw": 450,
			"isHD": false,
			"language": 1,
			"lic": false,
			"link": "https://www.oreotv.website/live/hot/iplsingle.m3u8?ma=01&lan=kan",
			"live": true,
			"name": "IPL LIVE Kanada",
			"tok": "widevine",
			"tokj": "hello",
			"trigger": false,
			"z": false,
			"zee": false
		}, {
			"age": "Mozilla/5.0 (Windows NT 6.1; Win64; x64) AppleWebKit/537.36 (KHTML, like Gecko) Chrome/62.0.3202.94 Safari/537.36",
			"cardl": 300,
			"cardw": 500,
			"category": 5,
			"channel_id": 155,
			"drm": false,
			"hd": false,
			"icon": "https://www.dreamteamcric.com/wp-content/uploads/DC-VS-CSK-3.jpg",
			"imgh": 219,
			"imgw": 450,
			"isHD": false,
			"language": 1,
			"lic": false,
			"link": "https://www.oreotv.website/live/hot/iplsingle.m3u8?ma=01&lan=ben",
			"live": true,
			"name": "IPL LIVE Bengali",
			"tok": "widevine",
			"tokj": "hello",
			"trigger": false,
			"z": false,
			"zee": false
		},


		{
			"age": "Mozilla/5.0 (Windows NT 6.1; Win64; x64) AppleWebKit/537.36 (KHTML, like Gecko) Chrome/62.0.3202.94 Safari/537.36",
			"cardl": 300,
			"cardw": 500,
			"category": 5,
			"channel_id": 155,
			"drm": false,
			"hd": false,
			"icon": "https://www.dreamteamcric.com/wp-content/uploads/DC-VS-CSK-3.jpg?width=390&height=219",
			"imgh": 219,
			"imgw": 450,
			"isHD": false,
			"language": 1,
			"lic": false,
			"link": "https://www.oreotv.website/live/hot/iplsingle.m3u8?ma=01&lan=dug",
			"live": true,
			"name": "IPL LIVE Dug",
			"tok": "widevine",
			"tokj": "hello",
			"trigger": false,
			"z": false,
			"zee": false
		}
	],
	"title": "Welcome to array 2"
}]