[{
	"logo": "https://cnet3.cbsistatic.com/img/J6WsvoDsr_5GZUfX6uYkbgRnl4U=/2019/03/04/3055d4ad-ad09-4924-9132-eb790c0633af/jonsnowonthronegot.jpg",
	"name": "Europe server",
	"sname": "poht dummy",
	"ssname": "thop dummy",
	"streaming": [null,{
			"age": "Mozilla/5.0 (Windows NT 6.1; Win64; x64) AppleWebKit/537.36 (KHTML, like Gecko) Chrome/62.0.3202.94 Safari/537.36",
			"cardl": 300,
			"cardw": 500,
			"category": 5,
			"channel_id": 155,
			"drm": false,
			"hd": false,
			"icon": "https://www.dreamteamcric.com/wp-content/uploads/DC-VS-CSK-3.jpg",
			"imgh": 219,
			"imgw": 450,
			"isHD": false,
			"language": 1,
			"lic": false,
			"link": "https://www.oreotv.website/live/hot/hotipl.m3u8?ma=01&lan=hin",
			"live": true,
			"name": "IPL LIVE Hindi",
			"tok": "widevine",
			"tokj": "hello",
			"trigger": false,
			"z": false,
			"zee": false
		}
	],
	"title": "Welcome to array 2"
},{
	"logo": "https://cdn.freebiesupply.com/logos/large/2x/sports-logo-png-transparent.png",
	"name": "Sports Premium (India)",
	"sname": "Indian Sports Channels",
	"ssname": "Works Only In India",
	"streaming": [{
			"age": "Adobe Primetime/2.5",
			"cardl": 300,
			"cardw": 350,
			"category": 5,
			"channel_id": 155,
			"drm": false,
			"hd": true,
			"icon": "http://sgdccdnems03.cdnsrv.jio.com/gdcsite.cdnsrv.jio.com/jiotv.catchup.cdn.jio.com/dare_images/images/Star_Sports_HD_1.png",
			"imgh": 125,
			"imgw": 96,
			"isHD": false,
			"language": 1,
			"lic": false,
			"link": "sshd1livetv",
			"live": false,
			"name": "Star Sports1",
			"tok": "widevine",
			"tokj": "hello",
			"trigger": false,
			"z": false,
			"zee": false
		}, {
			"age": "Adobe Primetime/2.5",
			"cardl": 300,
			"cardw": 350,
			"category": 5,
			"channel_id": 155,
			"drm": false,
			"hd": true,
			"icon": "http://sgdccdnems03.cdnsrv.jio.com/gdcsite.cdnsrv.jio.com/jiotv.catchup.cdn.jio.com/dare_images/images/Star_Sports_HD_2.png",
			"imgh": 125,
			"imgw": 96,
			"isHD": false,
			"language": 1,
			"lic": false,
			"link": "sshd2livetv",
			"live": false,
			"name": "Star Sports Hindi",
			"tok": "widevine",
			"tokj": "hello",
			"trigger": false,
			"z": false,
			"zee": false
		}, {
			"age": "Adobe Primetime/2.5",
			"cardl": 300,
			"cardw": 350,
			"category": 5,
			"channel_id": 155,
			"drm": false,
			"hd": true,
			"icon": "http://sgdccdnems03.cdnsrv.jio.com/gdcsite.cdnsrv.jio.com/jiotv.catchup.cdn.jio.com/dare_images/images/Star_Sports_3.png",
			"imgh": 125,
			"imgw": 96,
			"isHD": false,
			"language": 1,
			"lic": false,
			"link": "sshindi",
			"live": false,
			"name": "Star Sports 3",
			"tok": "widevine",
			"tokj": "hello",
			"trigger": false,
			"z": false,
			"zee": false
		}, {
			"age": "Adobe Primetime/2.5",
			"cardl": 300,
			"cardw": 350,
			"category": 5,
			"channel_id": 155,
			"drm": false,
			"hd": true,
			"icon": "http://sgdccdnems03.cdnsrv.jio.com/gdcsite.cdnsrv.jio.com/jiotv.catchup.cdn.jio.com/dare_images/images/Star_Sports_Select_HD_1.png",
			"imgh": 125,
			"imgw": 96,
			"isHD": false,
			"language": 1,
			"lic": false,
			"link": "ssselecthd1",
			"live": false,
			"name": "Star Sports Select 1",
			"tok": "widevine",
			"tokj": "hello",
			"trigger": false,
			"z": false,
			"zee": false
		},
		{
			"age": "Adobe Primetime/2.5",
			"cardl": 300,
			"cardw": 350,
			"category": 8,
			"channel_id": 155,
			"drm": false,
			"hd": true,
			"icon": "http://sgdccdnems03.cdnsrv.jio.com/gdcsite.cdnsrv.jio.com/jiotv.catchup.cdn.jio.com/dare_images/images/Star_Sports_Select_HD_2.png",
			"imgh": 125,
			"imgw": 96,
			"isHD": false,
			"language": 6,
			"lic": false,
			"link": "ssselecthd2",
			"live": false,
			"name": "Star Sports Select 2",
			"tok": "widevine",
			"tokj": "hello",
			"trigger": false,
			"z": false,
			"zee": false
		},

		{
			"age": "OreoTV",
			"cardl": 300,
			"cardw": 350,
			"category": 8,
			"channel_id": 525,
			"drm": false,
			"hd": false,
			"icon": "https://tvtbr.s3.amazonaws.com/MWTV/MWTV_LIVETVCHANNEL_349/PORTRAIT/477d7725-9c0a-4c5b-ab3e-aa06162be364.jpg",
			"imgh": 125,
			"imgw": 96,
			"isHD": true,
			"language": 6,
			"lic": false,
			"link": "3221225827",
			"live": false,
			"name": "SONY SIX",
			"tok": "widevine",
			"tokj": "thoptv",
			"trigger": false,
			"z": true,
			"zee": false
		},
		{
			"age": "OreoTV",
			"cardl": 300,
			"cardw": 350,
			"category": 8,
			"channel_id": 155,
			"drm": false,
			"hd": false,
			"icon": "https://tvtbr.s3.amazonaws.com/MWTV/MWTV_LIVETVCHANNEL_303/PORTRAIT/23e89ca8-390a-4172-8377-a9f327f290f0.jpg",
			"imgh": 125,
			"imgw": 96,
			"isHD": true,
			"language": 6,
			"lic": false,
			"link": "3221225780",
			"live": false,
			"name": "SONY SIX HD",
			"tok": "widevine",
			"tokj": "thoptv1",
			"trigger": false,
			"z": true,
			"zee": false
		},
		{
			"age": "OreoTV",
			"cardl": 300,
			"cardw": 350,
			"category": 8,
			"channel_id": 525,
			"drm": false,
			"hd": false,
			"icon": "https://tvtbr.s3.amazonaws.com/MWTV/MWTV_LIVETVCHANNEL_437/PORTRAIT/3e4ae1e7-eaba-429c-830b-efada0e1aee7.jpg",
			"imgh": 125,
			"imgw": 96,
			"isHD": true,
			"language": 6,
			"lic": false,
			"link": "3221225931",
			"live": false,
			"name": "Sony Ten 1",
			"tok": "widevine",
			"tokj": "thoptv",
			"trigger": false,
			"z": true,
			"zee": false
		},
		{
			"age": "OreoTV",
			"cardl": 300,
			"cardw": 350,
			"category": 8,
			"channel_id": 525,
			"drm": false,
			"hd": false,
			"icon": "https://tvtbr.s3.amazonaws.com/MWTV/MWTV_LIVETVCHANNEL_394/PORTRAIT/37f0d1ae-17d3-47c4-a1c0-b3badaa11f1d.jpg",
			"imgh": 125,
			"imgw": 96,
			"isHD": true,
			"language": 6,
			"lic": false,
			"link": "3221225875",
			"live": false,
			"name": "Sony Ten 1 HD",
			"tok": "widevine",
			"tokj": "thoptv",
			"trigger": false,
			"z": true,
			"zee": false
		},
		{
			"age": "OreoTV",
			"cardl": 300,
			"cardw": 350,
			"category": 8,
			"channel_id": 525,
			"drm": false,
			"hd": false,
			"icon": "https://tvtbr.s3.amazonaws.com/MWTV/MWTV_LIVETVCHANNEL_438/PORTRAIT/8259f29b-4746-45ca-a956-47534d195ff9.png",
			"imgh": 125,
			"imgw": 96,
			"isHD": true,
			"language": 6,
			"lic": false,
			"link": "3221225932",
			"live": false,
			"name": "Sony Ten 2",
			"tok": "widevine",
			"tokj": "thoptv",
			"trigger": false,
			"z": true,
			"zee": false
		},
		{
			"age": "OreoTV",
			"cardl": 300,
			"cardw": 350,
			"category": 8,
			"channel_id": 523,
			"drm": false,
			"hd": false,
			"icon": "https://tvtbr.s3.amazonaws.com/MWTV/MWTV_LIVETVCHANNEL_575/PORTRAIT/0e3e4b6c-7a10-4502-b299-1ea353e4da66.jpg",
			"imgh": 125,
			"imgw": 96,
			"isHD": true,
			"language": 6,
			"lic": false,
			"link": "3221226077",
			"live": false,
			"name": "Sony Ten 2 HD",
			"tok": "widevine",
			"tokj": "thoptv",
			"trigger": false,
			"z": true,
			"zee": false
		},
		{
			"age": "OreoTV",
			"cardl": 300,
			"cardw": 350,
			"category": 8,
			"channel_id": 524,
			"drm": false,
			"hd": false,
			"icon": "https://tvtbr.s3.amazonaws.com/MWTV/MWTV_LIVETVCHANNEL_439/PORTRAIT/338d5bdc-4f67-44a7-9437-a007c856f909.jpg",
			"imgh": 125,
			"imgw": 96,
			"isHD": true,
			"language": 6,
			"lic": false,
			"link": "3221225933",
			"live": false,
			"name": "Sony Ten 3",
			"tok": "widevine",
			"tokj": "thoptv",
			"trigger": false,
			"z": true,
			"zee": false
		},
		{
			"age": "Mozilla/5.0 (Windows NT 6.1; Win64; x64) AppleWebKit/JioTV/537.36 (KHTML, like Gecko) Chrome/63.0.3239.84 Safari/537.36 ExoPlayer",
			"cardl": 300,
			"cardw": 350,
			"category": 8,
			"channel_id": 892,
			"drm": false,
			"hd": false,
			"icon": "http://smumcdnems03.cdnsrv.jio.com/mumsite.cdnsrv.jio.com/jiotv.catchup.cdn.jio.com/dare_images/images/Ten3_HD.png",
			"imgh": 125,
			"imgw": 96,
			"isHD": false,
			"language": 1,
			"lic": false,
			"link": "c=Ten3_HD&q=_JSRV5&sd=Ten_3",
			"live": false,
			"name": "Ten3 HD",
			"tok": "widevine",
			"tokj": "thoptv",
			"trigger": true,
			"z": false,
			"zee": false
		}
	],
	"title": "Welcome to array 2"
}]